[
  {
    "nombre": "Del aguila",
    "direccion": {
      "ubicacion": {
        "coordenadaX": "-34.5005484",
        "coordenadaY": "-58.6984654"
      },
      "nombreCalle": "Gral. San Martín",
      "altura": 2558
    },
    "telefonos": []
  },
  {
    "nombre": "Jativa",
    "direccion": {
      "ubicacion": {
        "coordenadaX": "-34.5069096",
        "coordenadaY": "-58.7025082"
      },
      "nombreCalle": "Rivadavia",
      "altura": 2017
    },
    "telefonos": [
      "011 4663-0789"
    ]
  }
]